[
    {
        "instrument": "btc",
        "currency": "usdt",
        "symbol": "btcusdt"
    },
    {
        "instrument": "btc",
        "currency": "aud",
        "symbol": "btcaud"
    },
    {
        "instrument": "eth",
        "currency": "aud",
        "symbol": "ethaud"
    },{
        "instrument": "bch",
        "currency": "aud",
        "symbol": "bchaud"
    },{
        "instrument": "hsr",
        "currency": "aud",
        "symbol": "hsraud"
    },{
        "instrument": "dash",
        "currency": "btc",
        "symbol": "dashbtc"
    },{
        "instrument": "fuel",
        "currency": "btc",
        "symbol": "fuelbtc"
    },{
        "instrument": "ubtc",
        "currency": "btc",
        "symbol": "ubtcbtc"
    },
    {
        "instrument": "ltc",
        "currency": "aud",
        "symbol": "ltcaud"
    },
    {
        "instrument": "eth",
        "currency": "usdt",
        "symbol": "ethusdt"
    },
    {
        "instrument": "usdt",
        "currency": "aud",
        "symbol": "usdtaud"
    },
    {
        "instrument": "etc",
        "currency": "aud",
        "symbol": "etcaud"
    }
]