[
    {
        "instrument": "btc",
        "currency": "aud",
        "symbol": "btcaud"
    },
    {
        "instrument": "eth",
        "currency": "aud",
        "symbol": "ethaud"
    },{
        "instrument": "powr",
        "currency": "aud",
        "symbol": "powraud"
    },{
        "instrument": "bch",
        "currency": "aud",
        "symbol": "bchaud"
    },{
        "instrument": "ltc",
        "currency": "aud",
        "symbol": "ltcaud"
    },{
        "instrument": "etc",
        "currency": "aud",
        "symbol": "etcaud"
    },{
        "instrument": "elf",
        "currency": "aud",
        "symbol": "elfaud"
    },{
        "instrument": "ctxc",
        "currency": "aud",
        "symbol": "ctxcaud"
    },{
        "instrument": "dta",
        "currency": "aud",
        "symbol": "dtaaud"
    },{
        "instrument": "iost",
        "currency": "aud",
        "symbol": "iostaud"
    }
]